^C:\USERS\100458273\DOCUMENTS\QUESTSYSTEM\QUESTSYSTEM\QUESTSYSTEM\MAIN.CPP
/c /ZI /nologo /W3 /WX- /diagnostics:classic /sdl /Od /Oy- /D _MBCS /Gm /EHsc /RTC1 /MDd /GS /fp:precise /Zc:wchar_t /Zc:forScope /Zc:inline /Fo"DEBUG\\" /Fd"DEBUG\VC141.PDB" /Gd /TP /analyze- C:\USERS\100458273\DOCUMENTS\QUESTSYSTEM\QUESTSYSTEM\QUESTSYSTEM\MAIN.CPP
^C:\USERS\100458273\DOCUMENTS\QUESTSYSTEM\QUESTSYSTEM\QUESTSYSTEM\TINYXML2.CPP
/c /ZI /nologo /W3 /WX- /diagnostics:classic /sdl /Od /Oy- /D _MBCS /Gm /EHsc /RTC1 /MDd /GS /fp:precise /Zc:wchar_t /Zc:forScope /Zc:inline /Fo"DEBUG\\" /Fd"DEBUG\VC141.PDB" /Gd /TP /analyze- C:\USERS\100458273\DOCUMENTS\QUESTSYSTEM\QUESTSYSTEM\QUESTSYSTEM\TINYXML2.CPP
^C:\USERS\100458273\DOCUMENTS\QUESTSYSTEM\QUESTSYSTEM\QUESTSYSTEM\QUESTLISTENER.CPP
/c /ZI /nologo /W3 /WX- /diagnostics:classic /sdl /Od /Oy- /D _MBCS /Gm /EHsc /RTC1 /MDd /GS /fp:precise /Zc:wchar_t /Zc:forScope /Zc:inline /Fo"DEBUG\\" /Fd"DEBUG\VC141.PDB" /Gd /TP /analyze- C:\USERS\100458273\DOCUMENTS\QUESTSYSTEM\QUESTSYSTEM\QUESTSYSTEM\QUESTLISTENER.CPP
^C:\USERS\100458273\DOCUMENTS\QUESTSYSTEM\QUESTSYSTEM\QUESTSYSTEM\LISTENER.CPP
/c /ZI /nologo /W3 /WX- /diagnostics:classic /sdl /Od /Oy- /D _MBCS /Gm /EHsc /RTC1 /MDd /GS /fp:precise /Zc:wchar_t /Zc:forScope /Zc:inline /Fo"DEBUG\\" /Fd"DEBUG\VC141.PDB" /Gd /TP /analyze- C:\USERS\100458273\DOCUMENTS\QUESTSYSTEM\QUESTSYSTEM\QUESTSYSTEM\LISTENER.CPP
^C:\USERS\100458273\DOCUMENTS\QUESTSYSTEM\QUESTSYSTEM\QUESTSYSTEM\TASKLISTENER.CPP
/c /ZI /nologo /W3 /WX- /diagnostics:classic /sdl /Od /Oy- /D _MBCS /Gm /EHsc /RTC1 /MDd /GS /fp:precise /Zc:wchar_t /Zc:forScope /Zc:inline /Fo"DEBUG\\" /Fd"DEBUG\VC141.PDB" /Gd /TP /analyze- C:\USERS\100458273\DOCUMENTS\QUESTSYSTEM\QUESTSYSTEM\QUESTSYSTEM\TASKLISTENER.CPP
^C:\USERS\100458273\DOCUMENTS\QUESTSYSTEM\QUESTSYSTEM\QUESTSYSTEM\TASK.CPP
/c /ZI /nologo /W3 /WX- /diagnostics:classic /sdl /Od /Oy- /D _MBCS /Gm /EHsc /RTC1 /MDd /GS /fp:precise /Zc:wchar_t /Zc:forScope /Zc:inline /Fo"DEBUG\\" /Fd"DEBUG\VC141.PDB" /Gd /TP /analyze- C:\USERS\100458273\DOCUMENTS\QUESTSYSTEM\QUESTSYSTEM\QUESTSYSTEM\TASK.CPP
^C:\USERS\100458273\DOCUMENTS\QUESTSYSTEM\QUESTSYSTEM\QUESTSYSTEM\TRIGGER.CPP
/c /ZI /nologo /W3 /WX- /diagnostics:classic /sdl /Od /Oy- /D _MBCS /Gm /EHsc /RTC1 /MDd /GS /fp:precise /Zc:wchar_t /Zc:forScope /Zc:inline /Fo"DEBUG\\" /Fd"DEBUG\VC141.PDB" /Gd /TP /analyze- C:\USERS\100458273\DOCUMENTS\QUESTSYSTEM\QUESTSYSTEM\QUESTSYSTEM\TRIGGER.CPP
^C:\USERS\100458273\DOCUMENTS\QUESTSYSTEM\QUESTSYSTEM\QUESTSYSTEM\WRENCH.CPP
/c /ZI /nologo /W3 /WX- /diagnostics:classic /sdl /Od /Oy- /D _MBCS /Gm /EHsc /RTC1 /MDd /GS /fp:precise /Zc:wchar_t /Zc:forScope /Zc:inline /Fo"DEBUG\\" /Fd"DEBUG\VC141.PDB" /Gd /TP /analyze- C:\USERS\100458273\DOCUMENTS\QUESTSYSTEM\QUESTSYSTEM\QUESTSYSTEM\WRENCH.CPP
^C:\USERS\100458273\DOCUMENTS\QUESTSYSTEM\QUESTSYSTEM\QUESTSYSTEM\TASKEVENT.CPP
/c /ZI /nologo /W3 /WX- /diagnostics:classic /sdl /Od /Oy- /D _MBCS /Gm /EHsc /RTC1 /MDd /GS /fp:precise /Zc:wchar_t /Zc:forScope /Zc:inline /Fo"DEBUG\\" /Fd"DEBUG\VC141.PDB" /Gd /TP /analyze- C:\USERS\100458273\DOCUMENTS\QUESTSYSTEM\QUESTSYSTEM\QUESTSYSTEM\TASKEVENT.CPP
^C:\USERS\100458273\DOCUMENTS\QUESTSYSTEM\QUESTSYSTEM\QUESTSYSTEM\QUEST.CPP
/c /ZI /nologo /W3 /WX- /diagnostics:classic /sdl /Od /Oy- /D _MBCS /Gm /EHsc /RTC1 /MDd /GS /fp:precise /Zc:wchar_t /Zc:forScope /Zc:inline /Fo"DEBUG\\" /Fd"DEBUG\VC141.PDB" /Gd /TP /analyze- C:\USERS\100458273\DOCUMENTS\QUESTSYSTEM\QUESTSYSTEM\QUESTSYSTEM\QUEST.CPP
^C:\USERS\100458273\DOCUMENTS\QUESTSYSTEM\QUESTSYSTEM\QUESTSYSTEM\EVENT.CPP
/c /ZI /nologo /W3 /WX- /diagnostics:classic /sdl /Od /Oy- /D _MBCS /Gm /EHsc /RTC1 /MDd /GS /fp:precise /Zc:wchar_t /Zc:forScope /Zc:inline /Fo"DEBUG\\" /Fd"DEBUG\VC141.PDB" /Gd /TP /analyze- C:\USERS\100458273\DOCUMENTS\QUESTSYSTEM\QUESTSYSTEM\QUESTSYSTEM\EVENT.CPP
^C:\USERS\100458273\DOCUMENTS\QUESTSYSTEM\QUESTSYSTEM\QUESTSYSTEM\QUESTBOOK.CPP
/c /ZI /nologo /W3 /WX- /diagnostics:classic /sdl /Od /Oy- /D _MBCS /Gm /EHsc /RTC1 /MDd /GS /fp:precise /Zc:wchar_t /Zc:forScope /Zc:inline /Fo"DEBUG\\" /Fd"DEBUG\VC141.PDB" /Gd /TP /analyze- C:\USERS\100458273\DOCUMENTS\QUESTSYSTEM\QUESTSYSTEM\QUESTSYSTEM\QUESTBOOK.CPP
^C:\USERS\STEPHEN\DOCUMENTS\QUESTSYSTEM\QUESTSYSTEM\QUESTSYSTEM\EVENT.CPP
/c /ZI /nologo /W3 /WX- /diagnostics:classic /sdl /Od /Oy- /D _MBCS /Gm /EHsc /RTC1 /MDd /GS /fp:precise /Zc:wchar_t /Zc:forScope /Zc:inline /Fo"DEBUG\\" /Fd"DEBUG\VC141.PDB" /Gd /TP /analyze- C:\USERS\STEPHEN\DOCUMENTS\QUESTSYSTEM\QUESTSYSTEM\QUESTSYSTEM\EVENT.CPP
^C:\USERS\STEPHEN\DOCUMENTS\QUESTSYSTEM\QUESTSYSTEM\QUESTSYSTEM\MAIN.CPP
/c /ZI /nologo /W3 /WX- /diagnostics:classic /sdl /Od /Oy- /D _MBCS /Gm /EHsc /RTC1 /MDd /GS /fp:precise /Zc:wchar_t /Zc:forScope /Zc:inline /Fo"DEBUG\\" /Fd"DEBUG\VC141.PDB" /Gd /TP /analyze- C:\USERS\STEPHEN\DOCUMENTS\QUESTSYSTEM\QUESTSYSTEM\QUESTSYSTEM\MAIN.CPP
^C:\USERS\STEPHEN\DOCUMENTS\QUESTSYSTEM\QUESTSYSTEM\QUESTSYSTEM\QUEST.CPP
/c /ZI /nologo /W3 /WX- /diagnostics:classic /sdl /Od /Oy- /D _MBCS /Gm /EHsc /RTC1 /MDd /GS /fp:precise /Zc:wchar_t /Zc:forScope /Zc:inline /Fo"DEBUG\\" /Fd"DEBUG\VC141.PDB" /Gd /TP /analyze- C:\USERS\STEPHEN\DOCUMENTS\QUESTSYSTEM\QUESTSYSTEM\QUESTSYSTEM\QUEST.CPP
^C:\USERS\STEPHEN\DOCUMENTS\QUESTSYSTEM\QUESTSYSTEM\QUESTSYSTEM\QUESTBOOK.CPP
/c /ZI /nologo /W3 /WX- /diagnostics:classic /sdl /Od /Oy- /D _MBCS /Gm /EHsc /RTC1 /MDd /GS /fp:precise /Zc:wchar_t /Zc:forScope /Zc:inline /Fo"DEBUG\\" /Fd"DEBUG\VC141.PDB" /Gd /TP /analyze- C:\USERS\STEPHEN\DOCUMENTS\QUESTSYSTEM\QUESTSYSTEM\QUESTSYSTEM\QUESTBOOK.CPP
^C:\USERS\STEPHEN\DOCUMENTS\QUESTSYSTEM\QUESTSYSTEM\QUESTSYSTEM\TASK.CPP
/c /ZI /nologo /W3 /WX- /diagnostics:classic /sdl /Od /Oy- /D _MBCS /Gm /EHsc /RTC1 /MDd /GS /fp:precise /Zc:wchar_t /Zc:forScope /Zc:inline /Fo"DEBUG\\" /Fd"DEBUG\VC141.PDB" /Gd /TP /analyze- C:\USERS\STEPHEN\DOCUMENTS\QUESTSYSTEM\QUESTSYSTEM\QUESTSYSTEM\TASK.CPP
^C:\USERS\STEPHEN\DOCUMENTS\QUESTSYSTEM\QUESTSYSTEM\QUESTSYSTEM\TINYXML2.CPP
/c /ZI /nologo /W3 /WX- /diagnostics:classic /sdl /Od /Oy- /D _MBCS /Gm /EHsc /RTC1 /MDd /GS /fp:precise /Zc:wchar_t /Zc:forScope /Zc:inline /Fo"DEBUG\\" /Fd"DEBUG\VC141.PDB" /Gd /TP /analyze- C:\USERS\STEPHEN\DOCUMENTS\QUESTSYSTEM\QUESTSYSTEM\QUESTSYSTEM\TINYXML2.CPP
^C:\USERS\STEPHEN\DOCUMENTS\QUESTSYSTEM\QUESTSYSTEM\QUESTSYSTEM\ITEM.CPP
/c /ZI /nologo /W3 /WX- /diagnostics:classic /sdl /Od /Oy- /D _MBCS /Gm /EHsc /RTC1 /MDd /GS /fp:precise /Zc:wchar_t /Zc:forScope /Zc:inline /Fo"DEBUG\\" /Fd"DEBUG\VC141.PDB" /Gd /TP /analyze- C:\USERS\STEPHEN\DOCUMENTS\QUESTSYSTEM\QUESTSYSTEM\QUESTSYSTEM\ITEM.CPP
